\begin{thebibliography}{1}

\bibitem{soudani2008}
Kamel Soudani, Guerric le~Maire, Eric Dufr{\^e}ne, Christophe Fran{\c{c}}ois,
  Nicolas Delpierre, Erwin Ulrich, and S{\'e}bastien Cecchini.
\newblock Evaluation of the onset of green-up in temperate deciduous broadleaf
  forests derived from moderate resolution imaging spectroradiometer (modis)
  data.
\newblock {\em Remote Sensing of Environment}, 112(5):2643--2655, 2008.

\end{thebibliography}
